fpga/vma_tb.vcd
$date
	Sun Mar 13 10:20:09 2022
$end
$version
	Icarus Verilog
$end
$timescale
	1ps
$end
$scope module vma_tb $end
$var wire 32 ! p_addr [31:0] $end
$var reg 1 " clk $end
$var reg 1 # i_stb $end
$var reg 1 $ rst $end
$var reg 32 % v_addr [31:0] $end
$scope module VMA $end
$var wire 1 " i_clk $end
$var wire 1 & i_p_ack $end
$var wire 32 ' i_p_dat_r [31:0] $end
$var wire 1 $ i_rst $end
$var wire 32 ( i_satp [31:0] $end
$var wire 1 ) i_sfence_vma $end
$var wire 32 * i_v_addr [31:0] $end
$var wire 1 # i_v_stb $end
$var wire 4 + i_v_we [3:0] $end
$var wire 1 , no_match $end
$var wire 1 - o_p_stb $end
$var wire 4 . o_p_we [3:0] $end
$var wire 1 / o_page_fault_error $end
$var wire 1 0 o_v_ack $end
$var wire 20 1 ppn [19:0] $end
$var wire 1 2 start_walk $end
$var wire 1 3 walk1 $end
$var wire 1 4 walk2 $end
$var wire 22 5 satp_ppn [21:0] $end
$var wire 1 6 satp_mode $end
$var wire 9 7 satp_asid [8:0] $end
$var wire 32 8 o_p_addr [31:0] $end
$var wire 1 9 match_2 $end
$var wire 1 : match_1 $end
$var wire 1 ; match_0 $end
$var reg 32 < pte [31:0] $end
$var reg 32 = tlb_0 [31:0] $end
$var reg 32 > tlb_1 [31:0] $end
$var reg 32 ? tlb_2 [31:0] $end
$var reg 20 @ tlb_vpn_0 [19:0] $end
$var reg 20 A tlb_vpn_1 [19:0] $end
$var reg 20 B tlb_vpn_2 [19:0] $end
$var reg 1 C wait1 $end
$var reg 1 D wait2 $end
$upscope $end
$upscope $end
$enddefinitions $end
#0
$dumpvars
xD
xC
bx B
bx A
bx @
bx ?
bx >
bx =
bx <
x;
x:
x9
bx 8
b0 7
16
b10001000 5
x4
x3
02
bx 1
z0
z/
bz .
0-
x,
bz +
bx *
z)
b10000000000000000000000010001000 (
bz '
z&
bx %
0$
0#
1"
bx !
$end
#1
0"
#2
1"
#3
0"
1$
#4
b0x00x000xx0x000x0xxxxxxxxxxxxx !
b0x00x000xx0x000x0xxxxxxxxxxxxx 8
b0x00x000xx0x000x0x 1
03
04
b11011110101011011011 @
b100100011010001010000000000 =
b0 A
b0 >
b0 B
b0 ?
0C
0D
b0 <
1"
#5
0"
0$
#6
1"
#7
b10010001101000101 1
0,
b10010001101000101111011101111 !
b10010001101000101111011101111 8
03
02
1;
0:
09
0"
1-
1#
b11011110101011011011111011101111 %
b11011110101011011011111011101111 *
#8
1"
#9
0"
0-
0#
#10
1"
#11
13
12
b0 1
1,
b10001000000100100000 !
b10001000000100100000 8
0;
0"
1-
1#
b10010001101000001001000110100 %
b10010001101000001001000110100 *
#12
x4
1C
1"
#13
b0x000x000xxxx00xx0x00 !
b0x000x000xxxx00xx0x00 8
x3
02
0"
0-
0#
